module github.com/kmlebedev/netcitybot

go 1.17

require (
	github.com/go-telegram-bot-api/telegram-bot-api v4.6.4+incompatible
	github.com/goodsign/monday v1.0.0
	github.com/sirupsen/logrus v1.8.1
)

require (
	github.com/technoweenie/multipartstreamer v1.0.1 // indirect
	golang.org/x/sys v0.0.0-20191026070338-33540a1f6037 // indirect
)
